objid	container	server_template_crc	cell_index	px	py	pz	qw	qx	qy	qz	scripts	objvars
i	i	h	i	f	f	f	f	f	f	f	s	p
189479	0	object/static/structure/general/streetlamp_small_green_style_01.iff	0	178.889	160.325	1990.98	3.20E-08	1	0	0		$|
1392889	0	object/building/military/outpost_cloning_facility_s03.iff	0	628.491	6	1006.08	0.707107	0	-0.707106	0	structure.municipal.cloning_facility:structure.municipal.cloning_base	healing.canhealshock|0|1|$|
1392896	0	object/building/military/outpost_shed_s03.iff	0	567.516	6	1012.57	0.707107	0	0.707106	0		$|
1392905	0	object/tangible/terminal/terminal_bazaar.iff	0	572.61	6	1044.46	0.444661	0	0.895699	0		$|
1392906	0	object/tangible/terminal/terminal_bank.iff	0	580.123	6	1058.82	0.0791209	0	0.996865	0		$|
1403884	0	object/tangible/terminal/terminal_bank.iff	0	570.03	6.00235	1044.11	-0.264513	0	0.964382	0		$|
2665977	0	object/static/structure/dathomir/mtn_clan_pillar_s01.iff	0	268.52	179.875	2012.62	0.059916	-0.0398914	0.997402	-0.00279697		$|
2665978	0	object/static/structure/dathomir/mtn_clan_gate_s01.iff	0	178.742	152.568	1990.77	-0.597515	0	0.801858	0		$|
4685522	0	object/static/item/item_briefcase.iff	0	588.704	6	1010.45	0.710913	0	-0.70328	0		$|
4685524	0	object/static/item/item_container_energy_liquid.iff	0	588.707	6	1009.52	1	0	0	0		$|
4685525	0	object/static/item/item_container_energy_liquid.iff	0	588.373	6	1009.53	1	0	0	0		$|
4685526	0	object/static/item/item_container_energy_solid.iff	0	588.123	6	1010.01	1	0	0	0		$|
4685527	0	object/static/item/item_container_energy_solid.iff	0	588.108	6	1010.55	0.99995	0	-0.00999984	0		$|
4685528	0	object/static/item/item_container_energy_solid.iff	0	588.134	6.34785	1010.25	0.9998	0	-0.0199987	0		$|
5645355	0	object/static/item/item_basket_shallow.iff	0	591.572	6.18974	987.141	0.955336	0	0	0.29552		$|
5645541	0	object/static/item/item_container_organic_food.iff	0	591.612	6	992.558	0.902611	0	-0.430458	0		$|
5645542	0	object/static/item/item_container_organic_food.iff	0	591.278	6	992.125	-0.228753	0	0.973485	0		$|
5645543	0	object/static/item/item_container_organic_food.iff	0	591.152	6.15811	992.905	0.596336	-0.37733	-0.373873	0.60185		$|
5645544	0	object/static/item/item_container_organic_structure.iff	0	586.056	6	995.438	0.872744	0	0.488177	0		$|
5645545	0	object/static/item/item_container_organic_structure.iff	0	586.708	6	996.281	0.984727	0	0.174108	0		$|
5645546	0	object/static/item/item_container_organic_structure.iff	0	585.789	6	996.189	0.90687	0	-0.42141	0		$|
5645547	0	object/static/item/item_container_organic_hide.iff	0	581.102	6	1002.14	0.844589	0	-0.535416	0		$|
5645548	0	object/static/item/item_container_organic_hide.iff	0	581.089	6.4111	1002.13	0.979061	0	0.203567	0		$|
5645550	0	object/static/structure/tatooine/debris_tatt_crate_metal_1.iff	0	579.195	6	1003.32	0.961055	0	-0.276356	0		$|
5645551	0	object/static/structure/tatooine/debris_tatt_crate_metal_1.iff	0	579.026	6.22136	1003.56	0.812744	0.179454	0.449295	0.32462		$|
5645552	0	object/static/item/wp_mle_lance_vibroaxe.iff	0	577.191	6.88544	1010.77	-0.00887011	0.96373	0.26672	0.00245487		$|
5645553	0	object/static/structure/tatooine/debris_tatt_drum_storage_2.iff	0	575.715	6	1006.55	0.975897	0	-0.21823	0		$|
5645554	0	object/static/structure/tatooine/debris_tatt_drum_storage_2.iff	0	575.798	6	1005.89	0.995953	0	0.0898786	0		$|
5645555	0	object/static/structure/tatooine/debris_tatt_drum_storage_1.iff	0	576.731	6	1006.4	0.952334	0	-0.305059	0		$|
5645556	0	object/static/structure/tatooine/debris_tatt_drum_storage_2.iff	0	576.807	6.88544	1006.42	0.990216	0	0.139543	0		$|
6915358	0	object/building/military/outpost_starport.iff	0	592.308	6.03961	1039.28	-0.267499	0	0.963558	0	structure.municipal.starport	travel.air_time|0|60|travel.cost|0|150|travel.ground_time|0|300|travel.point_name|4|Trade Outpost|travel.shuttle_available|0|1|travel.version|0|3|$|
6955366	0	object/building/corellia/ply_corl_house_m_s01_fp1.iff	0	603.157	6	987.739	1	0	0	0	planet_map.map_loc:structure.municipal.cantina:theme_park.dungeon.generic_spawner	spawn_table|4|datatables/spawning/poi_spawner/dathomir/dath_trade_outpost_spawns.iff|healing.canhealshock|0|1|safeLogout|0|1|$|
6955398	0	object/building/military/outpost_shed.iff	0	577.423	6	992.553	0.92388	0	0.382683	0		$|
6955412	0	object/static/structure/corellia/corl_imprv_wall_4x16_s03.iff	0	641.318	5	1002.12	0.789992	0	-0.613117	0		$|
6955413	0	object/static/structure/military/military_column_weak_imperial_style_01.iff	0	639.332	6	994.375	0.789992	0	-0.613117	0		$|
6955414	0	object/static/structure/corellia/corl_imprv_wall_4x16_s03.iff	0	633.976	5	988.285	0.908966	0	-0.416871	0		$|
6955415	0	object/static/structure/military/military_column_weak_imperial_style_01.iff	0	628.756	6	982.223	0.908966	0	-0.416871	0		$|
6955416	0	object/static/structure/corellia/corl_imprv_wall_4x16_s03.iff	0	622.369	5	977.389	0.947651	0	-0.319309	0		$|
6955417	0	object/static/structure/military/military_column_weak_imperial_style_01.iff	0	616	6	972.549	0.947651	0	-0.319309	0		$|
6955418	0	object/static/structure/corellia/corl_imprv_wall_4x16_s03.iff	0	642.914	5	1017.99	-0.685868	0	0.727726	0		$|
6955419	0	object/static/structure/military/military_column_weak_imperial_style_01.iff	0	643.386	6	1010	-0.685868	0	0.727726	0		$|
6955420	0	object/static/structure/corellia/corl_imprv_wall_4x16_s03.iff	0	640.331	5	1033.69	-0.60582	0	0.795602	0		$|
6955421	0	object/static/structure/military/military_column_weak_imperial_style_01.iff	0	642.458	6	1025.98	-0.60582	0	0.795602	0		$|
6955422	0	object/static/structure/military/military_column_weak_imperial_style_01.iff	0	638.257	6.00451	1041.54	-0.408487	0	0.912764	0		$|
6955423	0	object/static/structure/corellia/corl_imprv_wall_4x16_s03.iff	0	632.927	5	1047.5	-0.408488	0	0.912764	0		$|
6955424	0	object/static/structure/corellia/corl_imprv_wall_4x16_s03.iff	0	620.923	5	1058.53	-0.315322	0	0.948985	0		$|
6955425	0	object/static/structure/military/military_column_weak_imperial_style_01.iff	0	627.333	6	1053.75	-0.315322	0	0.948985	0		$|
6955426	0	object/static/structure/corellia/corl_imprv_wall_4x16_s03.iff	0	606.404	5	1063.32	0.00920388	0	0.999958	0		$|
6955427	0	object/static/structure/military/military_column_weak_imperial_style_01.iff	0	614.402	6	1063.47	0.00920386	0	0.999958	0		$|
6955428	0	object/static/structure/military/military_column_weak_imperial_style_01.iff	0	598.205	6	1063.23	0.0142032	0	0.999899	0		$|
6955429	0	object/static/structure/corellia/corl_imprv_wall_4x16_s03.iff	0	590.209	5	1063	0.014203	0	0.999899	0		$|
6955430	0	object/static/structure/military/military_column_weak_imperial_style_01.iff	0	581.747	6	1062.77	0.00920401	0	0.999958	0		$|
6955431	0	object/static/structure/corellia/corl_imprv_wall_4x16_s03.iff	0	559.945	5	1056.69	0.393286	0	0.919416	0		$|
6955432	0	object/static/structure/military/military_column_weak_imperial_style_01.iff	0	565.469	6	1062.47	0.393286	0	0.919416	0		$|
6955433	0	object/static/structure/corellia/corl_imprv_wall_4x16_s03.iff	0	573.749	5	1062.62	0.00920401	0	0.999958	0		$|
6955434	0	object/static/structure/military/military_column_med_imperial_style_01.iff	0	554.096	6	1050.57	0.999888	0	-0.0149994	0		$|
6955435	0	object/static/structure/corellia/corl_imprv_wall_4x16_s03.iff	0	591.733	5	971.098	0.997189	0	0.0749298	0		$|
6955436	0	object/static/structure/corellia/corl_imprv_wall_4x16_s03.iff	0	607.675	5	971.105	0.996802	0	-0.0799153	0		$|
6955438	0	object/static/structure/military/military_column_weak_imperial_style_01.iff	0	599.778	6	969.832	0.996802	0	-0.0799153	0		$|
6955439	0	object/static/structure/corellia/corl_imprv_wall_4x16_s03.iff	0	577.225	5	977.01	0.953847	0	0.300293	0		$|
6955440	0	object/static/structure/corellia/corl_imprv_wall_4x16_s03.iff	0	565.216	5	987.461	0.917121	0	0.398609	0		$|
6955441	0	object/static/structure/military/military_column_weak_imperial_style_01.iff	0	583.823	6	972.294	0.997189	0	0.0749296	0		$|
6955442	0	object/static/structure/military/military_column_weak_imperial_style_01.iff	0	570.668	6	981.593	0.953847	0	0.300293	0		$|
6955443	0	object/static/structure/military/military_column_weak_imperial_style_01.iff	0	559.637	6	993.529	0.908966	0	0.41687	0		$|
6955444	0	object/static/structure/corellia/corl_imprv_wall_4x16_s03.iff	0	556.505	5	1001.05	0.833712	0	0.552199	0		$|
6955445	0	object/static/structure/military/military_column_weak_imperial_style_01.iff	0	553.385	6	1008.41	0.833712	0	0.5522	0		$|
6955446	0	object/static/structure/corellia/corl_imprv_wall_4x16_s03.iff	0	551.766	5	1016.09	0.764842	0	0.644218	0		$|
6955449	0	object/static/structure/military/military_column_med_imperial_style_01.iff	0	550.237	6	1024.69	0.99639	0	-0.0848972	0		$|
6955450	0	object/static/structure/corellia/corl_power_bubble_node.iff	0	630.151	6	1031.65	1	0	0	0		$|
6955451	0	object/static/structure/corellia/corl_power_bubble_node.iff	0	630.151	6	1025.65	1	0	0	0		$|
6955452	0	object/static/structure/corellia/corl_power_bubble_node.iff	0	626.151	6	1019.65	-3.20E-08	0	1	0		$|
6955453	0	object/static/structure/corellia/corl_power_bubble_node.iff	0	626.151	6	1025.65	1	0	0	0		$|
6955454	0	object/static/structure/corellia/corl_power_transformer_s02.iff	0	626.151	6	1031.65	1	0	0	0		$|
6955455	0	object/static/structure/corellia/corl_power_arial_prime.iff	0	628.151	6	1028.65	1	0	0	0		$|
6955456	0	object/static/structure/corellia/corl_power_arial_thin.iff	0	626.151	8.94092	1031.65	1	0	0	0		$|
6955457	0	object/static/structure/general/landing_pad_shuttle.iff	0	628.151	6	1025.65	1	0	0	0		$|
6955458	0	object/static/structure/corellia/corl_power_transformer_s02.iff	0	630.151	6	1019.65	-3.20E-08	0	1	0		$|
6955459	0	object/static/structure/corellia/corl_power_arial_thin.iff	0	630.151	6	1019.65	-3.20E-08	0	1	0		$|
6955460	0	object/static/structure/military/military_column_med_imperial_style_01.iff	0	533.128	6.69422	1024.56	0.710914	0	-0.703279	0		$|
6955461	0	object/static/structure/corellia/corl_imprv_wall_4x16_s03.iff	0	541.482	5.73877	1024.49	0.999375	-0.000174994	0.00499777	-0.0349924		$|
6955462	0	object/static/structure/military/military_column_med_imperial_style_01.iff	0	537.337	6.55746	1048.21	-0.656219	0	0.75457	0		$|
6955463	0	object/static/structure/corellia/corl_imprv_wall_4x16_s03.iff	0	545.46	5.4477	1049.32	0.99694	0.00244747	-0.0698991	-0.0349072		$|
6955464	0	object/static/item/item_container_inorganic_minerals.iff	0	615.3	6	1030.86	0.99955	0	0.029995	0		$|
6955465	0	object/static/item/item_container_inorganic_minerals.iff	0	615.288	6.88544	1029.82	0.998201	0	0.059964	0		$|
6955466	0	object/static/item/item_container_inorganic_minerals.iff	0	615.764	6	1029.23	0.735088	0	-0.677972	0		$|
6955467	0	object/static/item/item_container_inorganic_minerals.iff	0	617.793	6	1034.55	-0.029995	0	0.99955	0		$|
6955468	0	object/static/item/item_container_inorganic_minerals.iff	0	618.304	6.88544	1034.31	0.998988	0	-0.044985	0		$|
6955469	0	object/static/item/item_container_inorganic_minerals.iff	0	618.759	6	1034.24	1	0	0	0		$|
6955470	0	object/static/item/item_container_inorganic_minerals.iff	0	620.391	6	1052.87	-0.29552	0	0.955337	0		$|
6955471	0	object/static/item/item_container_inorganic_minerals.iff	0	620.708	6.88544	1052.4	0.974794	0	0.223106	0		$|
6955472	0	object/static/item/item_container_inorganic_minerals.iff	0	621.064	6	1052.11	0.963771	0	0.266731	0		$|
6955473	0	object/static/item/item_container_inorganic_minerals.iff	0	623.141	6	1050.57	-0.29552	0	0.955337	0		$|
6955474	0	object/static/item/item_container_inorganic_minerals.iff	0	623.458	6.88544	1050.11	0.974794	0	0.223106	0		$|
6955475	0	object/static/item/item_container_inorganic_minerals.iff	0	623.814	6	1049.82	0.963771	0	0.266731	0		$|
6955476	0	object/static/structure/tatooine/debris_tatt_drum_storage_1.iff	0	604.792	6	1024.51	0.783821	0	-0.620987	0		$|
6955477	0	object/static/structure/tatooine/debris_tatt_drum_storage_1.iff	0	605.838	6	1024.81	-0.42666	0	0.904412	0		$|
6955478	0	object/static/structure/tatooine/debris_tatt_drum_storage_1.iff	0	606.435	6	1024.16	0.900447	0	-0.434965	0		$|
6955479	0	object/static/structure/tatooine/debris_tatt_drum_storage_1.iff	0	606.139	6.88544	1024.54	0.380925	0	0.924606	0		$|
6955480	0	object/static/structure/tatooine/debris_tatt_crate_metal_1.iff	0	605.713	6	1023.66	-0.179812	0	0.983701	0		$|
6955481	0	object/static/structure/tatooine/debris_tatt_drum_storage_1.iff	0	605.489	6	1022.81	0.979061	0	0.203567	0		$|
6955482	0	object/static/structure/tatooine/debris_tatt_crate_metal_1.iff	0	604.7	6	1023.43	-0.640996	0	0.767544	0		$|
6955483	0	object/static/structure/tatooine/debris_tatt_crate_metal_1.iff	0	604.279	6	1022.93	-0.426659	0	0.904413	0		$|
6955484	0	object/static/item/item_container_inorganic_minerals.iff	0	627.347	6	1046.01	-0.29552	0	0.955337	0		$|
6955485	0	object/static/item/item_container_inorganic_minerals.iff	0	627.664	6.88544	1045.54	0.974794	0	0.223106	0		$|
6955486	0	object/static/item/item_container_inorganic_minerals.iff	0	628.02	6	1045.25	0.963771	0	0.266731	0		$|
6955487	0	object/static/item/item_container_inorganic_minerals.iff	0	624.733	6	993.092	-0.29552	0	0.955337	0		$|
6955488	0	object/static/item/item_container_inorganic_minerals.iff	0	625.051	6.88544	992.627	0.974794	0	0.223106	0		$|
6955489	0	object/static/item/item_container_inorganic_minerals.iff	0	625.406	6	992.336	0.963771	0	0.266731	0		$|
6955490	0	object/static/item/item_container_inorganic_minerals.iff	0	626.645	6	1049.62	-0.029995	0	0.99955	0		$|
6955491	0	object/static/item/item_container_inorganic_minerals.iff	0	627.156	6.88544	1049.39	0.998988	0	-0.044985	0		$|
6955492	0	object/static/item/item_container_inorganic_minerals.iff	0	627.611	6	1049.32	1	0	0	0		$|
6955493	0	object/static/item/item_container_inorganic_minerals.iff	0	632.255	6	1046.39	0.324797	0	0.945784	0		$|
6955494	0	object/static/item/item_container_inorganic_minerals.iff	0	631.581	6.88544	1047.17	0.296281	0	0.955101	0		$|
6955495	0	object/static/item/item_container_inorganic_minerals.iff	0	630.831	6	1047.3	0.893822	0	0.448422	0		$|
7015415	0	object/tangible/crafting/station/public_clothing_station.iff	0	579.75	6	1002.38	0.373426	0	0.92766	0		$|
7015416	0	object/tangible/crafting/station/public_structure_station.iff	0	587.764	6	994.583	0.92388	0	0.382683	0		$|
7015420	0	object/static/structure/general/streetlamp_small_blue_style_01.iff	0	620.365	6	1003.78	1	0	0	0		$|
7015421	0	object/static/structure/general/streetlamp_small_blue_style_01.iff	0	575.279	6	1014.65	1	0	0	0		$|
7015422	0	object/static/structure/general/streetlamp_small_blue_style_01.iff	0	581.719	6	998.498	0.92388	0	-0.382683	0		$|
7015424	0	object/static/structure/general/streetlamp_small_blue_style_01.iff	0	533.18	8.65161	1026.4	0.991251	-0.0348529	0.00447337	-0.127227		$|
7015425	0	object/static/structure/general/streetlamp_small_blue_style_01.iff	0	554.422	6.83101	1048.74	0.998362	0.0114158	-0.0550851	-0.0104298		$|
7015426	0	object/static/structure/general/streetlamp_small_red_style_01.iff	0	580.765	9.8153	1049.41	-3.10E-08	0.970137	7.76E-09	-0.242556		$|
7015427	0	object/static/structure/general/streetlamp_small_red_style_01.iff	0	606.861	9.82719	1034.43	-2.77E-08	0.865324	-1.60E-08	0.501213		$|
7015428	0	object/static/structure/general/streetlamp_small_red_style_01.iff	0	593.6	9.82718	1042.28	-2.77E-08	0.865324	-1.60E-08	0.501213		$|
7015429	0	object/static/structure/general/tankfarm_s01.iff	0	612.853	6	1055.47	0.963047	0	0.269332	0		$|
7015430	0	object/static/structure/general/tankfarm_s01.iff	0	605.711	6.00188	1059.67	0.963047	0	0.269332	0		$|
7015431	0	object/static/item/item_container_inorganic_minerals.iff	0	590.881	6	1042.34	0.731689	0	0.681638	0		$|
7015432	0	object/static/item/item_container_inorganic_minerals.iff	0	591.441	6.88544	1041.83	0.0157956	0	0.999875	0		$|
7015433	0	object/static/item/item_container_inorganic_minerals.iff	0	591.586	6	1040.8	0.0457809	0	0.998952	0		$|
7015434	0	object/static/structure/tatooine/debris_tatt_crate_metal_1.iff	0	589.258	6	1039.77	0.808027	0	-0.589146	0		$|
7015435	0	object/static/structure/tatooine/debris_tatt_drum_storage_1.iff	0	590.062	6	1040.73	0.995953	0	0.0898772	0		$|
7015436	0	object/static/structure/tatooine/debris_tatt_drum_storage_1.iff	0	590.414	6	1039.7	0.932328	0	-0.361615	0		$|
7015437	0	object/static/structure/tatooine/debris_tatt_drum_storage_1.iff	0	589.793	6	1039.07	0.952333	0	0.305059	0		$|
7015438	0	object/static/structure/tatooine/debris_tatt_crate_metal_1.iff	0	588.972	6	1040.77	0.993395	0	-0.114747	0		$|
7015439	0	object/static/structure/tatooine/debris_tatt_crate_metal_1.iff	0	588.459	6	1041.16	0.932326	0	-0.361618	0		$|
7015441	0	object/tangible/crafting/station/public_weapon_station.iff	0	576.017	6	1010.24	0.707107	0	0.707106	0		$|
7015458	0	object/static/structure/tatooine/debris_tatt_drum_storage_1.iff	0	624.414	6	990.971	-0.357693	0	0.933839	0		$|
7015459	0	object/static/structure/tatooine/debris_tatt_crate_metal_1.iff	0	624.969	6	990.138	0.655016	0	0.755615	0		$|
7015460	0	object/static/structure/tatooine/debris_tatt_crate_metal_1.iff	0	625.523	6	990.471	0.824435	0	0.565956	0		$|
7015462	0	object/tangible/terminal/terminal_mission.iff	0	575.334	6	1017.02	0.707107	0	0.707106	0		$|
7015466	0	object/static/structure/general/streetlamp_medium_blue_style_02.iff	0	447.364	-0.117483	1049.38	0.717911	0	-0.696135	0		$|
7555370	0	object/tangible/crafting/station/food_station.iff	0	591.075	6	989.898	0.707107	0	-0.707106	0		$|
8575630	0	object/static/structure/general/streetlamp_medium_red_style_01.iff	0	605.059	6	1005.18	0.707107	0	-0.707107	0		$|
8575631	0	object/static/structure/general/streetlamp_medium_red_style_01.iff	0	589.655	6	1009.14	0.707107	0	0.707107	0		$|
8575632	0	object/static/structure/general/streetlamp_medium_red_style_01.iff	0	625.149	6	1047.47	-0.298098	0	0.954535	0		$|
8715555	0	object/static/structure/dathomir/dath_imprv_flagpole_s01.iff	0	568.754	13.7501	1045.13	1	0	0	0		$|
8715556	0	object/static/structure/dathomir/dath_imprv_flagpole_s01.iff	0	608.447	13.8038	1021.01	1	0	0	0		$|
8715557	0	object/static/structure/dathomir/dath_imprv_flagpole_s01.iff	0	554.127	10.1423	1050.54	1	0	0	0		$|
8715558	0	object/static/structure/dathomir/dath_imprv_flagpole_s01.iff	0	550.254	10.1119	1024.71	1	0	0	0		$|
9725662	0	object/static/structure/dathomir/mtn_clan_crows_nest_s01.iff	0	1485.88	140.893	1466.14	0.0806995	0.0149524	0.00118677	0.996626		$|
9725670	0	object/static/structure/dantooine/dant_boundary_post.iff	0	1476.91	131.908	1469.58	0.857709	0	-0.514136	0		$|
9725671	0	object/static/structure/dantooine/dant_boundary_post.iff	0	1489.21	130.116	1470.66	0.865324	0	0.501213	0		$|
9725679	0	object/static/structure/dantooine/dant_skull_bol.iff	0	1482.15	131.551	1472.02	1	0	0	0		$|
9725680	0	object/static/structure/dantooine/dant_skull_lizard.iff	0	1489.81	130.304	1464.56	1	0	0	0		$|
